<svg width="26" height="26" xmlns="http://www.w3.org/2000/svg">
	<g>
		<ellipse ry="11" rx="11" id="svg_1" cy="13" cx="13" stroke-width="2" stroke="#ffffff" fill="#ffffff"/>
		<ellipse ry="9" rx="9" id="svg_2" cy="13" cx="13" stroke-width="3" stroke="#0e4779" fill="#ffffff"/>
	</g>
</svg>
